Final Exam - R Program
…
2. Now in fraction format

This data has one observation for each pair of a tag and a year, showing the number of questions asked in that tag in that year and the total number of questions asked in that year. For instance, there were 54 questions asked about the .htaccess tag in 2008, out of a total of 58390 questions in that year.

Rather than just the counts, we're probably interested in a percentage: the fraction of questions that year that have that tag. So let's add that to the table.

# Add fraction column and convert num to date
by_tag_year_fraction <- by_tag_year %>% 
  mutate(fraction = number/year_total) %>%
  mutate(year = make_date(year)) 

# Print the new table
by_tag_year_fraction

## # A tibble: 40,518 x 5
##    year       tag           number year_total  fraction
##    <date>     <chr>          <dbl>      <dbl>     <dbl>
##  1 2008-01-01 .htaccess         54      58390 0.000925 
##  2 2008-01-01 .net            5910      58390 0.101    
##  3 2008-01-01 .net-2.0         289      58390 0.00495  
##  4 2008-01-01 .net-3.5         319      58390 0.00546  
##  5 2008-01-01 .net-4.0           6      58390 0.000103 
##  6 2008-01-01 .net-assembly      3      58390 0.0000514
##  7 2008-01-01 .net-core          1      58390 0.0000171
##  8 2008-01-01 2d                42      58390 0.000719 
##  9 2008-01-01 32-bit            19      58390 0.000325 
## 10 2008-01-01 32bit-64bit        4      58390 0.0000685
## # ... with 40,508 more rows
…
We might like to know which tags have the most questions overall, not just within a particular year. Right now, we have several rows for every tag, but we'll be combining them into one. That means we want group_by() and summarize().

Let's look at tags that have the most questions in history.

# Find total number of questions for each tag
sorted_tags <- by_tag_year %>%
  group_by(tag) %>%
  summarize(number_total = sum(number)) %>%
  arrange(desc(number_total))

# Print the new table
sorted_tags 

## # A tibble: 4,080 x 2
##    tag        number_total
##    <chr>             <dbl>
##  1 javascript      1632049
##  2 java            1425961
##  3 c#              1217450
##  4 php             1204291
##  5 android         1110261
##  6 python           970768
##  7 jquery           915159
##  8 html             755341
##  9 c++              574263
## 10 ios              566075
## # ... with 4,070 more rows

7. How have large programming languages changed over time?

We've looked at selected tags like R, ggplot2, and dplyr, and seen that they're each growing. What tags might be shrinking? A good place to start is to plot the tags that we just saw that were the most-asked about of all time, including JavaScript, Java and C#.

# Get the six largest tags
highest_tags <- head(sorted_tags$tag)

# Filter for the six largest tags
by_highest_tag_subset <- by_tag_year_fraction %>% 
    filter(tag %in% highest_tags)
by_highest_tag_subset

## # A tibble: 66 x 5
##    year       tag        number year_total fraction
##    <date>     <chr>       <dbl>      <dbl>    <dbl>
##  1 2008-01-01 android        38      58390 0.000651
##  2 2008-01-01 c#           7473      58390 0.128   
##  3 2008-01-01 java         4315      58390 0.0739  
##  4 2008-01-01 javascript   2736      58390 0.0469  
##  5 2008-01-01 php          2254      58390 0.0386  
##  6 2008-01-01 python       2080      58390 0.0356  
##  7 2009-01-01 android      1991     343868 0.00579 
##  8 2009-01-01 c#          46044     343868 0.134   
##  9 2009-01-01 java        24023     343868 0.0699  
## 10 2009-01-01 javascript  18722     343868 0.0544  
## # ... with 56 more rows
…
Wow, based on that graph we've seen a lot of changes in what programming languages are most asked about. C# gets fewer questions than it used to, and Python has grown quite impressively.

This Stack Overflow data is incredibly versatile. We can analyze any programming language, web framework, or tool where we'd like to see their change over time. Combined with the reproducibility of R and its libraries, we have ourselves a powerful method of uncovering insights about technology.

To demonstrate its versatility, let's check out how three big mobile operating systems (Android, iOS, and Windows Phone) have compared in popularity over time. But remember: this code can be modified simply by changing the tag names!

# Get tags of interest
my_tags <- c("android", "ios", "windows-phone" )

# Filter for those tags
by_tag_subset <- by_tag_year_fraction %>% 
  filter(tag %in% my_tags)
by_tag_subset

## # A tibble: 32 x 5
##    year       tag           number year_total  fraction
##    <date>     <chr>          <dbl>      <dbl>     <dbl>
##  1 2008-01-01 android           38      58390 0.000651 
##  2 2008-01-01 ios               95      58390 0.00163  
##  3 2008-01-01 windows-phone      1      58390 0.0000171
##  4 2009-01-01 android         1991     343868 0.00579  
##  5 2009-01-01 ios              615     343868 0.00179  
##  6 2010-01-01 android        27280     694391 0.0393   
##  7 2010-01-01 ios             3748     694391 0.00540  
##  8 2010-01-01 windows-phone     47     694391 0.0000677
##  9 2011-01-01 android        86987    1200551 0.0725   
## 10 2011-01-01 ios            33214    1200551 0.0277   
## # ... with 22 more rows
…
